{
  "title": "Magazine Dealer",
  "type": "object",
  "properties": {
    "id": {
      "type": "integer",
      "minimum": 1
    },
    "name": {
      "type": "string",
      "minLength": 1
    },
    "address": {
      "type": "string",
      "minLength": 1
    },
    "city": {
      "type": "string",
      "minLength": 1
    },
    "state": {
      "type": "string",
      "minLength": 2,
      "maxLength": 2
    },
    "distance": {
      "type": "number",
      "minimum": 0
    },
    "latitude": {
      "type": "number",
      "minimum": 20
    },
    "longitude": {
      "type": "number",
      "maximum": -5
    },
    "phone": {
      "type": "object",
      "properties": {
        "areaCode": {
          "type": "string",
          "minLength": 3
        },
        "number": {
          "type": "string",
          "minLength": 6
        }
      },
      "required": ["areaCode", "number"]
    }
  },
  "required": [
    "id", "name", "address", "city", "state", "distance", "latitude",
    "longitude", "phone"
  ],
  "additionalProperties": false
}
